docker-workflow:1.19
blueocean:1.18.0
cloudbees-folder:6.9
ws-cleanup:0.37
credentials-binding:1.19
workflow-aggregator:2.6
github-branch-source:2.5.5
pipeline-github-lib:1.0
pipeline-stage-view:2.11
git:3.11.0
git-parameter:0.9.11
email-ext:2.66
mailer:1.24
job-dsl:1.74
parameterized-trigger:2.35.2
pipeline-utility-steps:2.3.0
publish-over-ssh:1.20.1
ssh-steps:2.0.0

